id,code,name,parent_id:id,type,user_type,reconcile,chart_template_id:id
0,0,"Acuatico Air Indonesia, PT.",,View,View,FALSE,l10n_aai.account_chart_template_aai
100000,100000,ASSETS,0,View,View,FALSE,l10n_aai.account_chart_template_aai
110000,110000,Current Assets,100000,View,View,FALSE,l10n_aai.account_chart_template_aai
111000,111000,Cash & Equivalents,110000,View,View,FALSE,l10n_aai.account_chart_template_aai
111100,111100,Cash,111000,View,View,FALSE,l10n_aai.account_chart_template_aai
111001,111001,Cash IDR - Head Office,111100,Liquidity,Cash,FALSE,l10n_aai.account_chart_template_aai
111002,111002,Cash IDR - KPP Ps.Kemis,111100,Liquidity,Cash,FALSE,l10n_aai.account_chart_template_aai
111003,111003,Cash IDR - Sampoerna Jakarta,111100,Liquidity,Cash,FALSE,l10n_aai.account_chart_template_aai
111004,111004,Cash IDR - KPP Cikupa,111100,Liquidity,Cash,FALSE,l10n_aai.account_chart_template_aai
111005,111005,Cash In Transit,111100,Liquidity,Cash,FALSE,l10n_aai.account_chart_template_aai
111006,111006,Cash IDR - KPP 1 Ps Kemis,111100,Liquidity,Cash,FALSE,l10n_aai.account_chart_template_aai
111007,111007,Cash IDR - KPP 2 Curug,111100,Liquidity,Cash,FALSE,l10n_aai.account_chart_template_aai
111008,111008,Cash IDR - UPP Jayanti ,111100,Liquidity,Cash,FALSE,l10n_aai.account_chart_template_aai
111009,111009,Cash IDR - WTP Sepatan,111100,Liquidity,Cash,FALSE,l10n_aai.account_chart_template_aai
111010,111010,Cash IDR - Distribusi,111100,Liquidity,Cash,FALSE,l10n_aai.account_chart_template_aai
111011,111011,Cash IDR - Corcom,111100,Liquidity,Cash,FALSE,l10n_aai.account_chart_template_aai
111012,111012,Cash IDR - General Affair,111100,Liquidity,Cash,FALSE,l10n_aai.account_chart_template_aai
111013,111013,Cash USD - Head Office,111100,Liquidity,Cash,FALSE,l10n_aai.account_chart_template_aai
111014,111014,Cash USD - Sampoerna Jakarta,111100,Liquidity,Cash,FALSE,l10n_aai.account_chart_template_aai
111200,111200,Bank,111000,View,View,FALSE,l10n_aai.account_chart_template_aai
111015,111015,Mandiri Bank IDR Operational - BSD,111200,Liquidity,Bank,FALSE,l10n_aai.account_chart_template_aai
111202,111202,Danamon Bank IDR - Jakarta,111200,Liquidity,Bank,FALSE,l10n_aai.account_chart_template_aai
111203,111203,BRI Bank IDR - Tangerang,111200,Liquidity,Bank,FALSE,l10n_aai.account_chart_template_aai
111204,111204,Citibank IDR - Jakarta,111200,Liquidity,Bank,FALSE,l10n_aai.account_chart_template_aai
111205,111205,Citibank IDR Escrow - Jakarta,111200,Liquidity,Bank,FALSE,l10n_aai.account_chart_template_aai
111206,111206,BCA Bank IDR - Jakarta,111200,Liquidity,Bank,FALSE,l10n_aai.account_chart_template_aai
111207,111207,Mandiri Bank IDR Collection - BSD ,111200,Liquidity,Bank,FALSE,l10n_aai.account_chart_template_aai
111208,111208,Bank Syariah Bukopin IDR - Jakarta,111200,Liquidity,Bank,FALSE,l10n_aai.account_chart_template_aai
111209,111209,Bank BTN IDR - Jakarta,111200,Liquidity,Bank,FALSE,l10n_aai.account_chart_template_aai
111210,111210,BRI Bank USD - Tangerang,111200,Liquidity,Bank,FALSE,l10n_aai.account_chart_template_aai
111211,111211,Citibank USD - Jakarta,111200,Liquidity,Bank,FALSE,l10n_aai.account_chart_template_aai
111212,111212,BCA Bank USD - Jakarta,111200,Liquidity,Bank,FALSE,l10n_aai.account_chart_template_aai
112000,112000,Account Receivable,110000,View,View,FALSE,l10n_aai.account_chart_template_aai
112100,112100,Trade Receivable,112000,View,View,FALSE,l10n_aai.account_chart_template_aai
112101,112101,Trade Receivable Water,112100,Receivable,Trade Receivable,TRUE,l10n_aai.account_chart_template_aai
112102,112102,Trade Receivable New Connection,112100,Receivable,Trade Receivable,TRUE,l10n_aai.account_chart_template_aai
112103,112103,Allowance for Doubtful Accounts,112100,Receivable,Trade Receivable,TRUE,l10n_aai.account_chart_template_aai
112104,112104,Trade Receivable - Technical Service Assistance,112100,Receivable,Trade Receivable,TRUE,l10n_aai.account_chart_template_aai
112200,112200,Non-Trade Receivable,112000,View,View,FALSE,l10n_aai.account_chart_template_aai
112201,112201,Non Trade Receivable,112200,Receivable,Non-Trade Receivable,TRUE,l10n_aai.account_chart_template_aai
112202,112202,Intercompany Receivable,112200,Receivable,Non-Trade Receivable,TRUE,l10n_aai.account_chart_template_aai
112300,112300,Advance Payment,112000,View,View,TRUE,l10n_aai.account_chart_template_aai
112301,112301,Personal Advance,112300,Receivable,Advance Payment,TRUE,l10n_aai.account_chart_template_aai
112400,112400,Other Receivable,112000,View,View,TRUE,l10n_aai.account_chart_template_aai
112401,112401,Other Receivable - IDR,112400,Receivable,Other Receivable,TRUE,l10n_aai.account_chart_template_aai
112402,112402,Other Receivable - USD,112400,Receivable,Other Receivable,TRUE,l10n_aai.account_chart_template_aai
112403,112403,Other Receivable - APL,112400,Receivable,Other Receivable,TRUE,l10n_aai.account_chart_template_aai
112404,112404,Other Receivable - APL & ASV,112400,Receivable,Other Receivable,TRUE,l10n_aai.account_chart_template_aai
113000,113000,Inventory,110000,View,View,TRUE,l10n_aai.account_chart_template_aai
113100,113100,Inventory,113000,View,View,FALSE,l10n_aai.account_chart_template_aai
113101,113101,Chemical Inventory,113100,Regular,Inventory,TRUE,l10n_aai.account_chart_template_aai
113102,113102,Pipe and Accessories Inventories,113100,Regular,Inventory,TRUE,l10n_aai.account_chart_template_aai
113103,113103,Good In Transit (Temporary),113100,Regular,Inventory,FALSE,l10n_aai.account_chart_template_aai
113104,113104,Prov for obs & slow moving stock,113100,Regular,Inventory,FALSE,l10n_aai.account_chart_template_aai
114000,114000,Prepayment,110000,View,View,FALSE,l10n_aai.account_chart_template_aai
114100,114100,Prepayment Expense,114000,View,View,FALSE,l10n_aai.account_chart_template_aai
114101,114101,Prepaid Rent,114100,Regular,Prepayment Expense,FALSE,l10n_aai.account_chart_template_aai
114102,114102,Prepaid Insurance,114100,Regular,Prepayment Expense,FALSE,l10n_aai.account_chart_template_aai
114103,114103,Prepaid Salary,114100,Regular,Prepayment Expense,FALSE,l10n_aai.account_chart_template_aai
114104,114104,Other Prepayment,114100,Regular,Prepayment Expense,FALSE,l10n_aai.account_chart_template_aai
114200,114200,Prepayment & Deferred Tax,114000,View,View,FALSE,l10n_aai.account_chart_template_aai
114201,114201,Prepaid Tax art. 21,114200,Regular,Prepayment & Deferred Tax,FALSE,l10n_aai.account_chart_template_aai
114202,114202,Prepaid Tax art. 22,114200,Regular,Prepayment & Deferred Tax,FALSE,l10n_aai.account_chart_template_aai
114203,114203,Prepaid Tax art. 23,114200,Regular,Prepayment & Deferred Tax,FALSE,l10n_aai.account_chart_template_aai
114204,114204,Prepaid Tax art. 4 (2),114200,Regular,Prepayment & Deferred Tax,FALSE,l10n_aai.account_chart_template_aai
114205,114205,Prepaid Tax art. 25,114200,Regular,Prepayment & Deferred Tax,FALSE,l10n_aai.account_chart_template_aai
114206,114206,Prepaid Tax art. 26,114200,Regular,Prepayment & Deferred Tax,FALSE,l10n_aai.account_chart_template_aai
114207,114207,Input VAT,114200,Regular,Prepayment & Deferred Tax,FALSE,l10n_aai.account_chart_template_aai
114208,114208,Deferred Tax Assets,114200,Regular,Prepayment & Deferred Tax,FALSE,l10n_aai.account_chart_template_aai
114209,114209,Other Prepaid Taxes,114200,Regular,Prepayment & Deferred Tax,FALSE,l10n_aai.account_chart_template_aai
114300,114300,Deposit,114000,View,View,FALSE,l10n_aai.account_chart_template_aai
114301,114301,Security Deposit,114300,Regular,Deposit,FALSE,l10n_aai.account_chart_template_aai
114302,114302,Telephone Deposit,114300,Regular,Deposit,FALSE,l10n_aai.account_chart_template_aai
114303,114303,Refundable Deposit,114300,Regular,Deposit,FALSE,l10n_aai.account_chart_template_aai
114304,114304,Other Deposit,114300,Regular,Deposit,FALSE,l10n_aai.account_chart_template_aai
115000,115000,Other Current Assets,110000,View,View,FALSE,l10n_aai.account_chart_template_aai
115100,115100,Other Current Assets,115000,View,View,FALSE,l10n_aai.account_chart_template_aai
115101,115101,Suspense Account - Fixed Assets,115100,Regular,Other Current Assets,FALSE,l10n_aai.account_chart_template_aai
115102,115102,Suspense Account - Office Renovation,115100,Regular,Other Current Assets,FALSE,l10n_aai.account_chart_template_aai
115200,115200,Stock Supplies,115000,View,View,FALSE,l10n_aai.account_chart_template_aai
115201,115201,Stationery,115200,Regular,Other Current Assets,FALSE,l10n_aai.account_chart_template_aai
120000,120000,Fixed Assets & Intangible Assets,100000,View,View,FALSE,l10n_aai.account_chart_template_aai
121000,121000,Fixed Assets & Acc Depreciation Fixed Assets,120000,View,View,FALSE,l10n_aai.account_chart_template_aai
121100,121100,Fixed Assets,121000,View,View,FALSE,l10n_aai.account_chart_template_aai
121101,121101,Land,121100,Regular,Fixed Assets,FALSE,l10n_aai.account_chart_template_aai
121102,121102,Building and Civil Works,121101,Regular,Fixed Assets,FALSE,l10n_aai.account_chart_template_aai
121103,121103,Electrical and Mechanical,121101,Regular,Fixed Assets,FALSE,l10n_aai.account_chart_template_aai
121104,121104,Laboratorium Equipment,121101,Regular,Fixed Assets,FALSE,l10n_aai.account_chart_template_aai
121105,121105,Furniture and Fixtures,121101,Regular,Fixed Assets,FALSE,l10n_aai.account_chart_template_aai
121106,121106,IT Equipment,121101,Regular,Fixed Assets,FALSE,l10n_aai.account_chart_template_aai
121107,121107,Vehicles,121101,Regular,Fixed Assets,FALSE,l10n_aai.account_chart_template_aai
121108,121108,Office Equipment,121101,Regular,Fixed Assets,FALSE,l10n_aai.account_chart_template_aai
121109,121109,Property Plan Equipment,121101,Regular,Fixed Assets,FALSE,l10n_aai.account_chart_template_aai
121110,121110,Warehouse Equipment,121101,Regular,Fixed Assets,FALSE,l10n_aai.account_chart_template_aai
121111,121111,Construction in Progress,121101,Regular,Fixed Assets,FALSE,l10n_aai.account_chart_template_aai
121200,121200,Accumulated Depreciation Fixed Assets,121000,View,View,FALSE,l10n_aai.account_chart_template_aai
121201,121201,Acc. Depreciation - Building and Civil Works,121200,Regular,Accumulated Depreciation Fixed Assets,FALSE,l10n_aai.account_chart_template_aai
121202,121202,Acc. Depreciation - Electrical and Mechanical,121200,Regular,Accumulated Depreciation Fixed Assets,FALSE,l10n_aai.account_chart_template_aai
121203,121203,Acc. Depreciation - Laboratorium Equipment,121200,Regular,Accumulated Depreciation Fixed Assets,FALSE,l10n_aai.account_chart_template_aai
121204,121204,Acc. Depreciation - Furniture and Fixtures,121200,Regular,Accumulated Depreciation Fixed Assets,FALSE,l10n_aai.account_chart_template_aai
121205,121205,Acc. Depreciation - IT Equipment,121200,Regular,Accumulated Depreciation Fixed Assets,FALSE,l10n_aai.account_chart_template_aai
121206,121206,Acc. Depreciation - Vehicles,121200,Regular,Accumulated Depreciation Fixed Assets,FALSE,l10n_aai.account_chart_template_aai
121207,121207,Acc. Depreciation - Office Equipment,121200,Regular,Accumulated Depreciation Fixed Assets,FALSE,l10n_aai.account_chart_template_aai
121208,121208,Acc. Depreciation - Property Plan Equipment,121200,Regular,Accumulated Depreciation Fixed Assets,FALSE,l10n_aai.account_chart_template_aai
121209,121209,Acc. Depreciation - Warehouse Equipment,121200,Regular,Accumulated Depreciation Fixed Assets,FALSE,l10n_aai.account_chart_template_aai
122000,122000,Intangible Assets & Acc Amortization Intangible Assets,120000,View,View,FALSE,l10n_aai.account_chart_template_aai
122100,122100,IA Ready to Use,122000,View,View,FALSE,l10n_aai.account_chart_template_aai
122101,122101,IA Land & Development,122100,Regular,IA Ready to Use,FALSE,l10n_aai.account_chart_template_aai
122102,122102,IA Building and Civil Works,122100,Regular,IA Ready to Use,FALSE,l10n_aai.account_chart_template_aai
122103,122103,IA Mechanical Electrical,122100,Regular,IA Ready to Use,FALSE,l10n_aai.account_chart_template_aai
122104,122104,IA Piping & Networks,122100,Regular,IA Ready to Use,FALSE,l10n_aai.account_chart_template_aai
122105,122105,IA Operational Supporting facility,122100,Regular,IA Ready to Use,FALSE,l10n_aai.account_chart_template_aai
122106,122106,IA Software & Licence,122100,Regular,IA Ready to Use,FALSE,l10n_aai.account_chart_template_aai
122107,122107,IA Others,122100,Regular,IA Ready to Use,FALSE,l10n_aai.account_chart_template_aai
122200,122200,Accumulated Amortization IA Ready to Use,122000,View,View,FALSE,l10n_aai.account_chart_template_aai
122201,122201,Acc Amortization IA Land & Development,122200,Regular,Accumulated Amortization IA Ready to Use,FALSE,l10n_aai.account_chart_template_aai
122202,122202,Acc Amortization IA Building and Civil Works,122200,Regular,Accumulated Amortization IA Ready to Use,FALSE,l10n_aai.account_chart_template_aai
122203,122203,Acc Amortization IA Mechanical Electrical,122200,Regular,Accumulated Amortization IA Ready to Use,FALSE,l10n_aai.account_chart_template_aai
122204,122204,Acc Amortization IA Piping & Networks,122200,Regular,Accumulated Amortization IA Ready to Use,FALSE,l10n_aai.account_chart_template_aai
122205,122205,Acc Amortization IA Operational Supporting facility,122200,Regular,Accumulated Amortization IA Ready to Use,FALSE,l10n_aai.account_chart_template_aai
122206,122206,Acc Amortization IA Software & License,122200,Regular,Accumulated Amortization IA Ready to Use,TRUE,l10n_aai.account_chart_template_aai
122207,122207,Acc Amortization IA Others,122200,Regular,Accumulated Amortization IA Ready to Use,TRUE,l10n_aai.account_chart_template_aai
122300,122300,IA Not Ready to Use,122000,View,View,FALSE,l10n_aai.account_chart_template_aai
122301,122301,IANRTU Land & Development,122300,Regular,IA Not Ready to Use,TRUE,l10n_aai.account_chart_template_aai
122302,122302,IANRTU Building and Civil Works,122300,Regular,IA Not Ready to Use,TRUE,l10n_aai.account_chart_template_aai
122303,122303,IANRTU Mechanical Electrical,122300,Regular,IA Not Ready to Use,TRUE,l10n_aai.account_chart_template_aai
122304,122304,IANRTU Piping & Networks,122300,Regular,IA Not Ready to Use,TRUE,l10n_aai.account_chart_template_aai
122305,122305,IANRTU Operational Supporting facility,122300,Regular,IA Not Ready to Use,FALSE,l10n_aai.account_chart_template_aai
122306,122306,IANRTU Others,122300,Regular,IA Not Ready to Use,TRUE,l10n_aai.account_chart_template_aai
200000,200000,LIABILITIES,0,View,View,TRUE,l10n_aai.account_chart_template_aai
210000,210000,Current Liabilities,200000,View,View,TRUE,l10n_aai.account_chart_template_aai
211000,211000,Account Payable,210000,View,View,TRUE,l10n_aai.account_chart_template_aai
211100,211100,Trade Payable ,211000,View,View,TRUE,l10n_aai.account_chart_template_aai
211101,211101,Trade Payable - IDR,211100,Payable,Trade Payable,FALSE,l10n_aai.account_chart_template_aai
211102,211102,Trade Payable - USD,211100,Payable,Trade Payable,FALSE,l10n_aai.account_chart_template_aai
211200,211200,Non Trade Payable,211000,View,View,FALSE,l10n_aai.account_chart_template_aai
211201,211201,Non Trade Payable - IDR,211200,Payable,Non Trade Payable,FALSE,l10n_aai.account_chart_template_aai
211202,211202,Non Trade Payable - USD,211200,Payable,Non Trade Payable,FALSE,l10n_aai.account_chart_template_aai
211203,211203,Intercompany Payable - IDR,211200,Payable,Non Trade Payable,FALSE,l10n_aai.account_chart_template_aai
211204,211204,Intercompany Payable - USD,211200,Payable,Non Trade Payable,FALSE,l10n_aai.account_chart_template_aai
211300,211300,Other Account Payable,211000,View,View,FALSE,l10n_aai.account_chart_template_aai
211301,211301,Non Bank Loan ST - IF Services Netherlands B.V. - USD,211300,Payable,Other Account Payable,FALSE,l10n_aai.account_chart_template_aai
211302,211302,Collection Suspense,211300,Payable,Other Account Payable,FALSE,l10n_aai.account_chart_template_aai
211303,211303,Salaries Payable,211300,Payable,Other Account Payable,FALSE,l10n_aai.account_chart_template_aai
211304,211304,Jamsostek Payable,211300,Payable,Other Account Payable,FALSE,l10n_aai.account_chart_template_aai
211305,211305,Unbilled Goods Account,211300,Payable,Other Account Payable,FALSE,l10n_aai.account_chart_template_aai
211306,211306,Deposit from Customers,211300,Payable,Other Account Payable,FALSE,l10n_aai.account_chart_template_aai
211307,211307,Other Payable - IDR,211300,Payable,Other Account Payable,FALSE,l10n_aai.account_chart_template_aai
211308,211308,Other Payable - USD,211300,Payable,Other Account Payable,FALSE,l10n_aai.account_chart_template_aai
211309,211309,Shareholders Advance - IDR APL,211300,Payable,Other Account Payable,FALSE,l10n_aai.account_chart_template_aai
220000,220000,Other Current Liabilities,200000,View,View,FALSE,l10n_aai.account_chart_template_aai
221000,221000,Tax Payable,220000,View,View,FALSE,l10n_aai.account_chart_template_aai
221100,221100,Tax Payable,221000,View,View,FALSE,l10n_aai.account_chart_template_aai
221101,221101,Tax Payable art. 21,221100,Regular,Tax Payable,FALSE,l10n_aai.account_chart_template_aai
221102,221102,Tax Payable art. 22,221100,Regular,Tax Payable,FALSE,l10n_aai.account_chart_template_aai
221103,221103,Tax Payable art. 23,221100,Regular,Tax Payable,FALSE,l10n_aai.account_chart_template_aai
221104,221104,Tax Payable art. 4 (2),221100,Regular,Tax Payable,FALSE,l10n_aai.account_chart_template_aai
221105,221105,Tax Payable art. 25,221100,Regular,Tax Payable,FALSE,l10n_aai.account_chart_template_aai
221106,221106,Tax Payable art. 26,221100,Regular,Tax Payable,FALSE,l10n_aai.account_chart_template_aai
221107,221107,Tax Payable art. 29,221100,Regular,Tax Payable,FALSE,l10n_aai.account_chart_template_aai
221108,221108,Deffered Tax Liabilities,221100,Regular,Tax Payable,FALSE,l10n_aai.account_chart_template_aai
221109,221109,Output VAT,221100,Regular,Tax Payable,FALSE,l10n_aai.account_chart_template_aai
221110,221110,Clearing VAT,221100,Regular,Tax Payable,FALSE,l10n_aai.account_chart_template_aai
221111,221111,Other Tax Payable,221100,Regular,Tax Payable,FALSE,l10n_aai.account_chart_template_aai
222000,222000,Accruals & Provisions,220000,View,View,FALSE,l10n_aai.account_chart_template_aai
222100,222100,Provisions,222000,View,View,FALSE,l10n_aai.account_chart_template_aai
222101,222101,Provision of Maintainable Capex - Short term,222100,Regular,Provisions,FALSE,l10n_aai.account_chart_template_aai
222102,222102,Employee Benefit Obligation,222100,Regular,Provisions,FALSE,l10n_aai.account_chart_template_aai
222200,222200,Accrued Expenses,222000,View,View,FALSE,l10n_aai.account_chart_template_aai
222201,222201,Accrued Royalty to PEMKAB,222200,Regular,Accrued Expenses,FALSE,l10n_aai.account_chart_template_aai
222202,222202,Accrued Water Management Services,222200,Regular,Accrued Expenses,FALSE,l10n_aai.account_chart_template_aai
222203,222203,Accrued Electricity,222200,Regular,Accrued Expenses,FALSE,l10n_aai.account_chart_template_aai
222204,222204,Accrued Car Rental,222200,Regular,Accrued Expenses,FALSE,l10n_aai.account_chart_template_aai
222205,222205,Accrued SIPA,222200,Regular,Accrued Expenses,FALSE,l10n_aai.account_chart_template_aai
222206,222206,Accrued Bonus & THR,222200,Regular,Accrued Expenses,FALSE,l10n_aai.account_chart_template_aai
222207,222207,Accrued Financial Audit,222200,Regular,Accrued Expenses,FALSE,l10n_aai.account_chart_template_aai
222208,222208,Accrued Meter Reading,222200,Regular,Accrued Expenses,FALSE,l10n_aai.account_chart_template_aai
222209,222209,Accrued Security Agency,222200,Regular,Accrued Expenses,FALSE,l10n_aai.account_chart_template_aai
222210,222210,Accrued Pipe and Accessories,222200,Regular,Accrued Expenses,FALSE,l10n_aai.account_chart_template_aai
222211,222211,Accrued Collection Expense,222200,Regular,Accrued Expenses,FALSE,l10n_aai.account_chart_template_aai
222212,222212,Accrued Internet,222200,Regular,Accrued Expenses,FALSE,l10n_aai.account_chart_template_aai
222213,222213,Accrued Photocopy,222200,Regular,Accrued Expenses,FALSE,l10n_aai.account_chart_template_aai
222214,222214,Accrued Telephone,222200,Regular,Accrued Expenses,FALSE,l10n_aai.account_chart_template_aai
222215,222215,Accrued Water Cost,222200,Regular,Accrued Expenses,FALSE,l10n_aai.account_chart_template_aai
222216,222216,Accrued Computer,222200,Regular,Accrued Expenses,FALSE,l10n_aai.account_chart_template_aai
222217,222217,Accrued Outsourcning,222200,Regular,Accrued Expenses,FALSE,l10n_aai.account_chart_template_aai
222218,222218,Accrued Permanent Disconnection,222200,Regular,Accrued Expenses,FALSE,l10n_aai.account_chart_template_aai
222219,222219,Accrued Terra Meter,222200,Regular,Accrued Expenses,FALSE,l10n_aai.account_chart_template_aai
222220,222220,Accrued Motor Rental,222200,Regular,Accrued Expenses,FALSE,l10n_aai.account_chart_template_aai
222221,222221,Accrued Office Maintenance,222200,Regular,Accrued Expenses,FALSE,l10n_aai.account_chart_template_aai
222222,222222,Accrued Permit and License,222200,Regular,Accrued Expenses,FALSE,l10n_aai.account_chart_template_aai
222223,222223,Accrued Tax Consultant,222200,Regular,Accrued Expenses,FALSE,l10n_aai.account_chart_template_aai
222224,222224,Accrued Intangible Assets,222200,Regular,Accrued Expenses,FALSE,l10n_aai.account_chart_template_aai
222225,222225,Accrued Newspaper & Magazine Adv,222200,Regular,Accrued Expenses,FALSE,l10n_aai.account_chart_template_aai
222226,222226,Accrued Terra Meter,222200,Regular,Accrued Expenses,FALSE,l10n_aai.account_chart_template_aai
222227,222227,Accrued Landscape,222200,Regular,Accrued Expenses,FALSE,l10n_aai.account_chart_template_aai
222228,222228,Accrued Recruitment & Training,222200,Regular,Accrued Expenses,FALSE,l10n_aai.account_chart_template_aai
222229,222229,Accrued Cleaning Service,222200,Regular,Accrued Expenses,FALSE,l10n_aai.account_chart_template_aai
222230,222230,Accrued Fee,222200,Regular,Accrued Expenses,FALSE,l10n_aai.account_chart_template_aai
222231,222231,Accrued Salary,222200,Regular,Accrued Expenses,FALSE,l10n_aai.account_chart_template_aai
222232,222232,Accrued Complimentary Item,222200,Regular,Accrued Expenses,FALSE,l10n_aai.account_chart_template_aai
222233,222233,Accrued Donation,222200,Regular,Accrued Expenses,FALSE,l10n_aai.account_chart_template_aai
222234,222234,Accrued Maintenance Production,222200,Regular,Accrued Expenses,FALSE,l10n_aai.account_chart_template_aai
222235,222235,Accrued Maintenance Distribution,222200,Regular,Accrued Expenses,FALSE,l10n_aai.account_chart_template_aai
222236,222236,Accrued Office Renovation,222200,Regular,Accrued Expenses,FALSE,l10n_aai.account_chart_template_aai
222237,222237,Accrued Marketing Tools,222200,Regular,Accrued Expenses,FALSE,l10n_aai.account_chart_template_aai
222238,222238,Accrued Toner & Catridge,222200,Regular,Accrued Expenses,FALSE,l10n_aai.account_chart_template_aai
222239,222239,Accrued Chemical,222200,Regular,Accrued Expenses,FALSE,l10n_aai.account_chart_template_aai
222240,222240,Accrued Water Tax Charge,222200,Regular,Accrued Expenses,FALSE,l10n_aai.account_chart_template_aai
222241,222241,Accrued Interest,222200,Regular,Accrued Expenses,FALSE,l10n_aai.account_chart_template_aai
222242,222242,Accrued Others,222200,Regular,Accrued Expenses,FALSE,l10n_aai.account_chart_template_aai
230000,230000,Long term Liabilities,200000,View,View,FALSE,l10n_aai.account_chart_template_aai
231000,231000,Long term Liabilities,230000,View,View,FALSE,l10n_aai.account_chart_template_aai
231100,231100,Bank Loan,231000,View,View,FALSE,l10n_aai.account_chart_template_aai
231101,231101,Bank Loan,231100,Regular,Bank Loan,FALSE,l10n_aai.account_chart_template_aai
231200,231200,Non Bank Loan,231000,View,View,FALSE,l10n_aai.account_chart_template_aai
231201,231201,Non Bank Loan,231200,Regular,Non Bank Loan,FALSE,l10n_aai.account_chart_template_aai
231202,231202,IF Services Netherlands B.V. - USD,231200,Regular,Non Bank Loan,FALSE,l10n_aai.account_chart_template_aai
231203,231203,Provision of Maint.Capex,231200,Regular,Non Bank Loan,FALSE,l10n_aai.account_chart_template_aai
231300,231300,Others Long term Liabilities,231000,View,View,FALSE,l10n_aai.account_chart_template_aai
231301,231301,Provision of Maintainable Capex - Long term,231300,Regular,Others Long term Liabilities,FALSE,l10n_aai.account_chart_template_aai
300000,300000,EQUITY,0,View,View,FALSE,l10n_aai.account_chart_template_aai
310000,310000,Paid in Capital,300000,View,View,FALSE,l10n_aai.account_chart_template_aai
311000,311000,Share Holder Capital,310000,View,View,FALSE,l10n_aai.account_chart_template_aai
311100,311100,Share Holder Capital,311000,View,View,FALSE,l10n_aai.account_chart_template_aai
311101,311101,Share Holder Capital - Acuatico Pte. Ltd.,311100,Regular,Share Holder Capital,FALSE,l10n_aai.account_chart_template_aai
311102,311102,"Share Holder Capital - PT Capitalinc Investment, Tbk.",311100,Regular,Share Holder Capital,FALSE,l10n_aai.account_chart_template_aai
311103,311103,Share Holder Capital - IF Services Netherlands B.V,311100,Regular,Share Holder Capital,FALSE,l10n_aai.account_chart_template_aai
311104,311104,Share Holder Capital - PT. Recapital Advisor,311100,Regular,Share Holder Capital,FALSE,l10n_aai.account_chart_template_aai
312000,312000,Devidend,310000,View,View,FALSE,l10n_aai.account_chart_template_aai
312100,312100,Devidend,312000,View,View,FALSE,l10n_aai.account_chart_template_aai
312101,312101,Devidend - Acuatico Pte. Ltd.,312100,Regular,Devidend,FALSE,l10n_aai.account_chart_template_aai
312102,312102,"Devidend - PT Capitalinc Investment, Tbk.",312100,Regular,Devidend,FALSE,l10n_aai.account_chart_template_aai
312103,312103,Devidend - IF Services Netherlands B.V,312100,Regular,Devidend,FALSE,l10n_aai.account_chart_template_aai
312104,312104,Devidend - PT. Recapital Advisor,312100,Regular,Devidend,FALSE,l10n_aai.account_chart_template_aai
313000,313000,Retained Earnings,310000,View,View,FALSE,l10n_aai.account_chart_template_aai
313100,313100,Retained Earnings,313000,View,View,FALSE,l10n_aai.account_chart_template_aai
313101,313101,Retained Earnings,313100,Regular,Retained Earnings,FALSE,l10n_aai.account_chart_template_aai
313102,313102,Opening Balance Equity,313100,Regular,Retained Earnings,FALSE,l10n_aai.account_chart_template_aai
400000,400000,REVENUE,0,View,View,FALSE,l10n_aai.account_chart_template_aai
410000,410000,Revenue - Water Usage,400000,View,View,FALSE,l10n_aai.account_chart_template_aai
410001,410001,Revenue - Water Usage Residential,410000,Regular,Revenue - Water Usage,FALSE,l10n_aai.account_chart_template_aai
410002,410002,Revenue - Water Usage Social,410000,Regular,Revenue - Water Usage,FALSE,l10n_aai.account_chart_template_aai
410003,410003,Revenue - Water Usage Commercial,410000,Regular,Revenue - Water Usage,FALSE,l10n_aai.account_chart_template_aai
410004,410004,Revenue - Water Usage Institutional,410000,Regular,Revenue - Water Usage,FALSE,l10n_aai.account_chart_template_aai
410005,410005,Revenue - Water Usage Industrial,410000,Regular,Revenue - Water Usage,FALSE,l10n_aai.account_chart_template_aai
410006,410006,Revenue - Water Usage Government Instance,410000,Regular,Revenue - Water Usage,FALSE,l10n_aai.account_chart_template_aai
410007,410007,Revenue - Water Usage Bulk Water,410000,Regular,Revenue - Water Usage,FALSE,l10n_aai.account_chart_template_aai
410008,410008,Revenue - Water Usage ,410000,Regular,Revenue - Water Usage,FALSE,l10n_aai.account_chart_template_aai
420000,420000,Revenue - New Connection,400000,View,View,FALSE,l10n_aai.account_chart_template_aai
420001,420001,Revenue - New Connection Residential,420000,Regular,Revenue - New Connection,FALSE,l10n_aai.account_chart_template_aai
420002,420002,Revenue - New Connection Social,420000,Regular,Revenue - New Connection,FALSE,l10n_aai.account_chart_template_aai
420003,420003,Revenue - New Connection Commercial,420000,Regular,Revenue - New Connection,FALSE,l10n_aai.account_chart_template_aai
420004,420004,Revenue - New Connection Institutional,420000,Regular,Revenue - New Connection,FALSE,l10n_aai.account_chart_template_aai
420005,420005,Revenue - New Connection Industrial,420000,Regular,Revenue - New Connection,FALSE,l10n_aai.account_chart_template_aai
420006,420006,Revenue - New Connection Government Instance,420000,Regular,Revenue - New Connection,FALSE,l10n_aai.account_chart_template_aai
420007,420007,Revenue - New Connection Bulk Water,420000,Regular,Revenue - New Connection,FALSE,l10n_aai.account_chart_template_aai
420008,420008,Revenue - New Connection ,420000,Regular,Revenue - New Connection,FALSE,l10n_aai.account_chart_template_aai
430000,430000,Revenue - Fixed Charge,400000,View,View,FALSE,l10n_aai.account_chart_template_aai
430001,430001,Revenue - Fixed Charge Residential ,430000,Regular,Revenue - Fixed Charge,FALSE,l10n_aai.account_chart_template_aai
430002,430002,Revenue - Fixed Charge Social,430000,Regular,Revenue - Fixed Charge,FALSE,l10n_aai.account_chart_template_aai
430003,430003,Revenue - Fixed Charge Commercial,430000,Regular,Revenue - Fixed Charge,FALSE,l10n_aai.account_chart_template_aai
430004,430004,Revenue - Fixed Charge Institutional,430000,Regular,Revenue - Fixed Charge,FALSE,l10n_aai.account_chart_template_aai
430005,430005,Revenue - Fixed Charge Industrial,430000,Regular,Revenue - Fixed Charge,FALSE,l10n_aai.account_chart_template_aai
430006,430006,Revenue - Fixed Charge Government Instance,430000,Regular,Revenue - Fixed Charge,FALSE,l10n_aai.account_chart_template_aai
430007,430007,Revenue - Fixed Charge Bulk Water,430000,Regular,Revenue - Fixed Charge,FALSE,l10n_aai.account_chart_template_aai
440000,440000,Revenue - Non Water,400000,View,View,FALSE,l10n_aai.account_chart_template_aai
440001,440001,Revenue - Additional Charge,440000,Regular,Revenue - Non Water,FALSE,l10n_aai.account_chart_template_aai
440002,440002,Revenue - Administration Fee Industrial,440000,Regular,Revenue - Non Water,FALSE,l10n_aai.account_chart_template_aai
440003,440003,Revenue - Service Fee,440000,Regular,Revenue - Non Water,FALSE,l10n_aai.account_chart_template_aai
440004,440004,Revenue - Material Fee,440000,Regular,Revenue - Non Water,FALSE,l10n_aai.account_chart_template_aai
440005,440005,Revenue - Meter Replacement,440000,Regular,Revenue - Non Water,FALSE,l10n_aai.account_chart_template_aai
440006,440006,Revenue - Change of Ownership,440000,Regular,Revenue - Non Water,FALSE,l10n_aai.account_chart_template_aai
440007,440007,Revenue - Meter Calibration,440000,Regular,Revenue - Non Water,FALSE,l10n_aai.account_chart_template_aai
440008,440008,Revenue - Water Quality Test,440000,Regular,Revenue - Non Water,FALSE,l10n_aai.account_chart_template_aai
440009,440009,Revenue - Meter Reading Card,440000,Regular,Revenue - Non Water,FALSE,l10n_aai.account_chart_template_aai
440010,440010,Revenue - Seal Replacement,440000,Regular,Revenue - Non Water,FALSE,l10n_aai.account_chart_template_aai
440011,440011,Revenue - Reprint,440000,Regular,Revenue - Non Water,FALSE,l10n_aai.account_chart_template_aai
440012,440012,Revenue - Min. Charge Domestic,440000,Regular,Revenue - Non Water,FALSE,l10n_aai.account_chart_template_aai
440013,440013,Revenue - Min. Charge Industrial,440000,Regular,Revenue - Non Water,FALSE,l10n_aai.account_chart_template_aai
440014,440014,Revenue - Late Payment Charge,440000,Regular,Revenue - Non Water,FALSE,l10n_aai.account_chart_template_aai
440015,440015,Revenue - Ilegal Consumption,440000,Regular,Revenue - Non Water,FALSE,l10n_aai.account_chart_template_aai
440016,440016,Revenue - Pipe Repair,440000,Regular,Revenue - Non Water,FALSE,l10n_aai.account_chart_template_aai
440017,440017,Revenue - Min Charge Bulk Water,440000,Regular,Revenue - Non Water,FALSE,l10n_aai.account_chart_template_aai
440018,440018,Revenue - Promo Domestic,440000,Regular,Revenue - Non Water,FALSE,l10n_aai.account_chart_template_aai
440019,440019,Revenue - Promo Industry,440000,Regular,Revenue - Non Water,FALSE,l10n_aai.account_chart_template_aai
450000,450000,Others Revenue ,400000,View,View,FALSE,l10n_aai.account_chart_template_aai
450001,450001,Revenue-Construction,450000,Regular,Others Revenue ,FALSE,l10n_aai.account_chart_template_aai
450002,450002,Revenue - Technical Service Assistance,450000,Regular,Others Revenue ,FALSE,l10n_aai.account_chart_template_aai
450003,450003,Revenue - Water Management Services,450000,Regular,Others Revenue ,FALSE,l10n_aai.account_chart_template_aai
500000,500000,COST OF SALES,0,View,View,FALSE,l10n_aai.account_chart_template_aai
510000,510000,Labor,500000,View,View,FALSE,l10n_aai.account_chart_template_aai
510001,510001,Basic Salary,510000,Regular,Labor,FALSE,l10n_aai.account_chart_template_aai
510002,510002,Overtime,510000,Regular,Labor,FALSE,l10n_aai.account_chart_template_aai
510003,510003,THR,510000,Regular,Labor,FALSE,l10n_aai.account_chart_template_aai
510004,510004,Commission and Bonus ,510000,Regular,Labor,FALSE,l10n_aai.account_chart_template_aai
510005,510005,Meal Allowances,510000,Regular,Labor,FALSE,l10n_aai.account_chart_template_aai
510006,510006,Transport Allowance,510000,Regular,Labor,FALSE,l10n_aai.account_chart_template_aai
510007,510007,Medical Reimbursment,510000,Regular,Labor,FALSE,l10n_aai.account_chart_template_aai
510008,510008,Jamsostek Premium,510000,Regular,Labor,FALSE,l10n_aai.account_chart_template_aai
510009,510009,Tax Allowance,510000,Regular,Labor,FALSE,l10n_aai.account_chart_template_aai
510010,510010,Incentive,510000,Regular,Labor,FALSE,l10n_aai.account_chart_template_aai
510011,510011,Fixed Allowance,510000,Regular,Labor,FALSE,l10n_aai.account_chart_template_aai
510012,510012,Sales Incentive,510000,Regular,Labor,FALSE,l10n_aai.account_chart_template_aai
510013,510013,Other Compensation and Benefit,510000,Regular,Labor,FALSE,l10n_aai.account_chart_template_aai
510014,510014,Employee Insurance Premium,510000,Regular,Labor,FALSE,l10n_aai.account_chart_template_aai
510015,510015,Medical Insurance,510000,Regular,Labor,FALSE,l10n_aai.account_chart_template_aai
510016,510016,Daily Worker,510000,Regular,Labor,FALSE,l10n_aai.account_chart_template_aai
510017,510017,BPJS Health,510000,Regular,Labor,FALSE,l10n_aai.account_chart_template_aai
510018,510018,BPJS Pension,510000,Regular,Labor,FALSE,l10n_aai.account_chart_template_aai
520000,520000,New Connections,500000,View,View,FALSE,l10n_aai.account_chart_template_aai
520001,520001,New Connection Cost Domestik,520000,Regular,New Connections,FALSE,l10n_aai.account_chart_template_aai
520002,520002,New Connection Cost Industry,520000,Regular,New Connections,FALSE,l10n_aai.account_chart_template_aai
530000,530000,Overhead,500000,View,View,FALSE,l10n_aai.account_chart_template_aai
530100,530100,Electricity Cost,530000,View,View,FALSE,l10n_aai.account_chart_template_aai
530101,530101,Electricty cost for WTP,530100,Regular,Electricity Cost,FALSE,l10n_aai.account_chart_template_aai
530102,530102,Electricty cost for Intake,530100,Regular,Electricity Cost,FALSE,l10n_aai.account_chart_template_aai
530103,530103,Electricity cost for Reservoir,530100,Regular,Electricity Cost,FALSE,l10n_aai.account_chart_template_aai
530200,530200,Meter reading,530000,View,View,FALSE,l10n_aai.account_chart_template_aai
530201,530201,Meter reading,530200,Regular,Meter reading,FALSE,l10n_aai.account_chart_template_aai
530300,530300,Maintenance Cost,530000,View,View,FALSE,l10n_aai.account_chart_template_aai
530301,530301,Maintenance Cost,530300,Regular,Maintenance Cost,FALSE,l10n_aai.account_chart_template_aai
530400,530400,Other Overhead Cost,530000,View,View,FALSE,l10n_aai.account_chart_template_aai
530401,530401,Telephone cost for WTP,530400,Regular,Other Overhead Cost,FALSE,l10n_aai.account_chart_template_aai
530402,530402,Telephone cost for Intake,530400,Regular,Other Overhead Cost,FALSE,l10n_aai.account_chart_template_aai
530403,530403,Telephone cost for Distribution,530400,Regular,Other Overhead Cost,FALSE,l10n_aai.account_chart_template_aai
530404,530404,Internet Cost for WTP,530400,Regular,Other Overhead Cost,FALSE,l10n_aai.account_chart_template_aai
530405,530405,Calibration Costs,530400,Regular,Other Overhead Cost,FALSE,l10n_aai.account_chart_template_aai
530406,530406,Diesel Fuel,530400,Regular,Other Overhead Cost,FALSE,l10n_aai.account_chart_template_aai
530407,530407,Laboratory,530400,Regular,Other Overhead Cost,FALSE,l10n_aai.account_chart_template_aai
530408,530408,Retribution,530400,Regular,Other Overhead Cost,FALSE,l10n_aai.account_chart_template_aai
530409,530409,Permanent Disconnection,530400,Regular,Other Overhead Cost,FALSE,l10n_aai.account_chart_template_aai
530410,530410,Land Rental of Intake,530400,Regular,Other Overhead Cost,FALSE,l10n_aai.account_chart_template_aai
530411,530411,Miscellaneous Other Expense,530400,Regular,Other Overhead Cost,FALSE,l10n_aai.account_chart_template_aai
530412,530412,Security Cost,530400,Regular,Other Overhead Cost,FALSE,l10n_aai.account_chart_template_aai
530413,530413,Tower Rental,530400,Regular,Other Overhead Cost,FALSE,l10n_aai.account_chart_template_aai
530414,530414,Fuel and Parking,530400,Regular,Other Overhead Cost,FALSE,l10n_aai.account_chart_template_aai
530415,530415,Safety Equipment,530400,Regular,Other Overhead Cost,FALSE,l10n_aai.account_chart_template_aai
530416,530416,Consumable,530400,Regular,Other Overhead Cost,FALSE,l10n_aai.account_chart_template_aai
530417,530417,Stationary and Photocopy,530400,Regular,Other Overhead Cost,FALSE,l10n_aai.account_chart_template_aai
530418,530418,Newspaper,530400,Regular,Other Overhead Cost,FALSE,l10n_aai.account_chart_template_aai
530419,530419,Water Analyze,530400,Regular,Other Overhead Cost,FALSE,l10n_aai.account_chart_template_aai
530420,530420,Maintenance of Water Pipe Instalation,530400,Regular,Other Overhead Cost,FALSE,l10n_aai.account_chart_template_aai
530421,530421,Miscellaneous Supplies and Equipment,530400,Regular,Other Overhead Cost,FALSE,l10n_aai.account_chart_template_aai
540000,540000,Material Cost,500000,View,View,FALSE,l10n_aai.account_chart_template_aai
540001,540001,Chemical Costs,540000,Regular,Others,FALSE,l10n_aai.account_chart_template_aai
540002,540002,Water Tax Charge,540000,Regular,Others,FALSE,l10n_aai.account_chart_template_aai
550000,550000,Fees,500000,View,View,FALSE,l10n_aai.account_chart_template_aai
550001,550001,Royalty to Pemkab Tangerang,550000,Regular,Fees,FALSE,l10n_aai.account_chart_template_aai
550002,550002,Water Management Services,550000,Regular,Fees,FALSE,l10n_aai.account_chart_template_aai
560000,560000,Depreciation Expenses,500000,View,View,FALSE,l10n_aai.account_chart_template_aai
560001,560001,Depreciation Expenses - Building and Civil Works,560000,Regular,Fees,FALSE,l10n_aai.account_chart_template_aai
560002,560002,Depreciation Expenses - Furniture and Fixtures,560000,Regular,Fees,FALSE,l10n_aai.account_chart_template_aai
560003,560003,Depreciation Expenses - IT Equipment,560000,Regular,Fees,FALSE,l10n_aai.account_chart_template_aai
560004,560004,Depreciation Expenses - Warehouse Equipment,560000,Regular,Fees,FALSE,l10n_aai.account_chart_template_aai
600000,600000,INDIRECT COST,0,View,View,FALSE,l10n_aai.account_chart_template_aai
610000,610000,Office Expense,600000,View,View,FALSE,l10n_aai.account_chart_template_aai
611000,611000,General and Adm. Expenses,610000,View,View,FALSE,l10n_aai.account_chart_template_aai
611100,611100,Communication Expense,611000,View,View,FALSE,l10n_aai.account_chart_template_aai
611101,611101,Telephone Cost,611100,Regular,Communication Expense,FALSE,l10n_aai.account_chart_template_aai
611102,611102,Handphone Cost,611100,Regular,Communication Expense,FALSE,l10n_aai.account_chart_template_aai
611103,611103,Internet Cost,611100,Regular,Communication Expense,FALSE,l10n_aai.account_chart_template_aai
611104,611104,Other Communication Expenses,611100,Regular,Communication Expense,FALSE,l10n_aai.account_chart_template_aai
611200,611200,Office Expenses,611000,View,View,FALSE,l10n_aai.account_chart_template_aai
611201,611201,Office Rental,611200,Regular,Office Expenses,FALSE,l10n_aai.account_chart_template_aai
611202,611202,Office Renovation,611200,Regular,Office Expenses,FALSE,l10n_aai.account_chart_template_aai
611203,611203,Office Maintenance,611200,Regular,Office Expenses,FALSE,l10n_aai.account_chart_template_aai
611204,611204,Electricity Cost,611200,Regular,Office Expenses,FALSE,l10n_aai.account_chart_template_aai
611205,611205,Water Cost,611200,Regular,Office Expenses,FALSE,l10n_aai.account_chart_template_aai
611206,611206,Stationery,611200,Regular,Office Expenses,FALSE,l10n_aai.account_chart_template_aai
611207,611207,Toner and Cartridge,611200,Regular,Office Expenses,FALSE,l10n_aai.account_chart_template_aai
611208,611208,Computer Peripheral,611200,Regular,Office Expenses,FALSE,l10n_aai.account_chart_template_aai
611209,611209,Software License,611200,Regular,Office Expenses,FALSE,l10n_aai.account_chart_template_aai
611210,611210,Printed Material,611200,Regular,Office Expenses,FALSE,l10n_aai.account_chart_template_aai
611211,611211,Newspaper and Book,611200,Regular,Office Expenses,FALSE,l10n_aai.account_chart_template_aai
611212,611212,Photocopy,611200,Regular,Office Expenses,FALSE,l10n_aai.account_chart_template_aai
611213,611213,Stamp Duty,611200,Regular,Office Expenses,FALSE,l10n_aai.account_chart_template_aai
611214,611214,Courierservices,611200,Regular,Office Expenses,FALSE,l10n_aai.account_chart_template_aai
611215,611215,Consumables,611200,Regular,Office Expenses,FALSE,l10n_aai.account_chart_template_aai
611216,611216,Document Processing Fee,611200,Regular,Office Expenses,FALSE,l10n_aai.account_chart_template_aai
611217,611217,Small Equipment,611200,Regular,Office Expenses,FALSE,l10n_aai.account_chart_template_aai
611218,611218,Photocopy Rental,611200,Regular,Office Expenses,FALSE,l10n_aai.account_chart_template_aai
611219,611219,Uniform and Safety Tools,611200,Regular,Office Expenses,FALSE,l10n_aai.account_chart_template_aai
611220,611220,Computer Rental,611200,Regular,Office Expenses,FALSE,l10n_aai.account_chart_template_aai
611221,611221,Apartment Rental,611200,Regular,Office Expenses,FALSE,l10n_aai.account_chart_template_aai
611222,611222,Outsourcing Expenses,611200,Regular,Office Expenses,FALSE,l10n_aai.account_chart_template_aai
611223,611223,Monitoring Expenses,611200,Regular,Office Expenses,FALSE,l10n_aai.account_chart_template_aai
611224,611224,Preoperational expenses,611200,Regular,Office Expenses,FALSE,l10n_aai.account_chart_template_aai
611225,611225,Collection Expense,611200,Regular,Office Expenses,FALSE,l10n_aai.account_chart_template_aai
611226,611226,Property and General Liability Insurance,611200,Regular,Office Expenses,FALSE,l10n_aai.account_chart_template_aai
611227,611227,Miscellaneous Other Expense,611200,Regular,Office Expenses,FALSE,l10n_aai.account_chart_template_aai
611228,611228,Regulatory Body Expenses,611200,Regular,Office Expenses,FALSE,l10n_aai.account_chart_template_aai
611229,611229,Retribution,611200,Regular,Office Expenses,FALSE,l10n_aai.account_chart_template_aai
611230,611230,Permit & License Expenses,611200,Regular,Office Expenses,FALSE,l10n_aai.account_chart_template_aai
611231,611231,Other Billing Expenses,611200,Regular,Office Expenses,FALSE,l10n_aai.account_chart_template_aai
611232,611232,Other Office Expenses,611200,Regular,Office Expenses,FALSE,l10n_aai.account_chart_template_aai
611233,611233,Business Development,611200,Regular,Office Expenses,FALSE,l10n_aai.account_chart_template_aai
611234,611234,Maintenance Support Fee - IT,611200,Regular,Office Expenses,FALSE,l10n_aai.account_chart_template_aai
611235,611235,Security Cost,611200,Regular,Office Expenses,FALSE,l10n_aai.account_chart_template_aai
611300,611300,Bank Related Expenses,611000,View,View,FALSE,l10n_aai.account_chart_template_aai
611301,611301,Bank Adm. Fee,611300,Regular,Bank Related Expenses,FALSE,l10n_aai.account_chart_template_aai
611302,611302,Transfer Fee,611300,Regular,Bank Related Expenses,FALSE,l10n_aai.account_chart_template_aai
611303,611303,Provision Fee,611300,Regular,Bank Related Expenses,FALSE,l10n_aai.account_chart_template_aai
611304,611304,Bank security agency fee,611300,Regular,Bank Related Expenses,FALSE,l10n_aai.account_chart_template_aai
612000,612000,Marketing Expenses,610000,View,View,FALSE,l10n_aai.account_chart_template_aai
612100,612100,Advertisement Expense,612000,View,View,FALSE,l10n_aai.account_chart_template_aai
612101,612101,Newspaper and Magazine Adv.,612100,Regular,Advertisement Expense,FALSE,l10n_aai.account_chart_template_aai
612102,612102,Outdoor Advertisement,612100,Regular,Advertisement Expense,FALSE,l10n_aai.account_chart_template_aai
612103,612103,Marketing Consultant,612100,Regular,Advertisement Expense,FALSE,l10n_aai.account_chart_template_aai
612200,612200,Promotion Expenses,612000,View,View,FALSE,l10n_aai.account_chart_template_aai
612201,612201,Exhibition,612200,Regular,Promotion Expenses,FALSE,l10n_aai.account_chart_template_aai
612202,612202,Brochures,612200,Regular,Promotion Expenses,FALSE,l10n_aai.account_chart_template_aai
612203,612203,Complimentary Item,612200,Regular,Promotion Expenses,FALSE,l10n_aai.account_chart_template_aai
612204,612204,Point of Sales Promotion,612200,Regular,Promotion Expenses,FALSE,l10n_aai.account_chart_template_aai
612205,612205,Marketing Tools,612200,Regular,Promotion Expenses,FALSE,l10n_aai.account_chart_template_aai
612300,612300,Commission,612000,View,View,FALSE,l10n_aai.account_chart_template_aai
612301,612301,Sales Commission,612300,Regular,Commission,FALSE,l10n_aai.account_chart_template_aai
612302,612302,3rd Party Commission,612300,Regular,Commission,FALSE,l10n_aai.account_chart_template_aai
612400,612400,Entertainment and Donation,612000,View,View,FALSE,l10n_aai.account_chart_template_aai
612401,612401,Business Gathering,612400,Regular,Entertainment and Donation,FALSE,l10n_aai.account_chart_template_aai
612402,612402,Meals,612400,Regular,Entertainment and Donation,FALSE,l10n_aai.account_chart_template_aai
612403,612403,Donation,612400,Regular,Entertainment and Donation,FALSE,l10n_aai.account_chart_template_aai
612404,612404,Other Entertaintments ,612400,Regular,Entertainment and Donation,FALSE,l10n_aai.account_chart_template_aai
613000,613000,Travelling and Vehicles Expenses,610000,View,View,FALSE,l10n_aai.account_chart_template_aai
613100,613100,Travelling Expenses,613000,View,View,FALSE,l10n_aai.account_chart_template_aai
613101,613101,Air Ticket,613100,Regular,Travelling Expenses,FALSE,l10n_aai.account_chart_template_aai
613102,613102,Hotel room,613100,Regular,Travelling Expenses,FALSE,l10n_aai.account_chart_template_aai
613103,613103,Taxi,613100,Regular,Travelling Expenses,FALSE,l10n_aai.account_chart_template_aai
613104,613104,Land and Water Transportation,613100,Regular,Travelling Expenses,FALSE,l10n_aai.account_chart_template_aai
613105,613105,Meals for Travelling,613100,Regular,Travelling Expenses,FALSE,l10n_aai.account_chart_template_aai
613106,613106,Laundry,613100,Regular,Travelling Expenses,FALSE,l10n_aai.account_chart_template_aai
613107,613107,OutTown Allowance,613100,Regular,Travelling Expenses,FALSE,l10n_aai.account_chart_template_aai
613108,613108,Other Travelling Expenses,613100,Regular,Travelling Expenses,FALSE,l10n_aai.account_chart_template_aai
613200,613200,Vehicle Expenses,613000,View,View,FALSE,l10n_aai.account_chart_template_aai
613201,613201,Car Rental,613200,Regular,Vehicle Expenses,FALSE,l10n_aai.account_chart_template_aai
613202,613202,Fuel Cost,613200,Regular,Vehicle Expenses,FALSE,l10n_aai.account_chart_template_aai
613203,613203,Parking and Toll Fees,613200,Regular,Vehicle Expenses,FALSE,l10n_aai.account_chart_template_aai
613204,613204,Car Maintenance,613200,Regular,Vehicle Expenses,FALSE,l10n_aai.account_chart_template_aai
613205,613205,Car Repair,613200,Regular,Vehicle Expenses,FALSE,l10n_aai.account_chart_template_aai
613206,613206,Car Insurance,613200,Regular,Vehicle Expenses,FALSE,l10n_aai.account_chart_template_aai
613207,613207,Motor Rental,613200,Regular,Vehicle Expenses,FALSE,l10n_aai.account_chart_template_aai
613208,613208,Other Vehicle Expenses,613200,Regular,Vehicle Expenses,FALSE,l10n_aai.account_chart_template_aai
620000,620000,Employee Compensation,600000,View,View,FALSE,l10n_aai.account_chart_template_aai
621000,621000,Employee Related Expenses,620000,View,View,FALSE,l10n_aai.account_chart_template_aai
621100,621100,Compensation and Benefit for Employee,621000,View,View,FALSE,l10n_aai.account_chart_template_aai
621101,621101,Basic Salary,621100,Regular,Compensation and Benefit for Employee,FALSE,l10n_aai.account_chart_template_aai
621102,621102,Overtime,621100,Regular,Compensation and Benefit for Employee,FALSE,l10n_aai.account_chart_template_aai
621103,621103,THR,621100,Regular,Compensation and Benefit for Employee,FALSE,l10n_aai.account_chart_template_aai
621104,621104,Commission and Bonus,621100,Regular,Compensation and Benefit for Employee,FALSE,l10n_aai.account_chart_template_aai
621105,621105,Meal Allowance,621100,Regular,Compensation and Benefit for Employee,FALSE,l10n_aai.account_chart_template_aai
621106,621106,Transport Allowance,621100,Regular,Compensation and Benefit for Employee,FALSE,l10n_aai.account_chart_template_aai
621107,621107,Medical Reimbursement,621100,Regular,Compensation and Benefit for Employee,FALSE,l10n_aai.account_chart_template_aai
621108,621108,Medical Insurance,621100,Regular,Compensation and Benefit for Employee,FALSE,l10n_aai.account_chart_template_aai
621109,621109,Jamsostek Premium,621100,Regular,Compensation and Benefit for Employee,FALSE,l10n_aai.account_chart_template_aai
621110,621110,Tax Allowance,621100,Regular,Compensation and Benefit for Employee,FALSE,l10n_aai.account_chart_template_aai
621111,621111,Incentive,621100,Regular,Compensation and Benefit for Employee,FALSE,l10n_aai.account_chart_template_aai
621112,621112,Fixed Allowance,621100,Regular,Compensation and Benefit for Employee,FALSE,l10n_aai.account_chart_template_aai
621113,621113,Sales Incentive,621100,Regular,Compensation and Benefit for Employee,FALSE,l10n_aai.account_chart_template_aai
621114,621114,Severence for employee,621100,Regular,Compensation and Benefit for Employee,FALSE,l10n_aai.account_chart_template_aai
621115,621115,Employee Insurance Premium,621100,Regular,Compensation and Benefit for Employee,FALSE,l10n_aai.account_chart_template_aai
621116,621116,Other Compensation and Benefit,621100,Regular,Compensation and Benefit for Employee,FALSE,l10n_aai.account_chart_template_aai
621117,621117,Employee Benefit Expenses,621100,Regular,Compensation and Benefit for Employee,FALSE,l10n_aai.account_chart_template_aai
621118,621118,BPJS Health,621100,Regular,Compensation and Benefit for Employee,FALSE,l10n_aai.account_chart_template_aai
621119,621119,BPJS Kesehatan,621100,Regular,Compensation and Benefit for Employee,FALSE,l10n_aai.account_chart_template_aai
621200,621200,Compensation and Benefit for Director,621000,View,View,FALSE,l10n_aai.account_chart_template_aai
621201,621201,Basic Salary for Director,621200,Regular,Compensation and Benefit for Director,FALSE,l10n_aai.account_chart_template_aai
621202,621202,THR for Director,621200,Regular,Compensation and Benefit for Director,FALSE,l10n_aai.account_chart_template_aai
621203,621203,Commission and Bonus for Director,621200,Regular,Compensation and Benefit for Director,FALSE,l10n_aai.account_chart_template_aai
621204,621204,Transport Allowance for Director,621200,Regular,Compensation and Benefit for Director,FALSE,l10n_aai.account_chart_template_aai
621205,621205,Medical Reimbursment for Director,621200,Regular,Compensation and Benefit for Director,FALSE,l10n_aai.account_chart_template_aai
621206,621206,Medical Insurance for Director,621200,Regular,Compensation and Benefit for Director,FALSE,l10n_aai.account_chart_template_aai
621207,621207,Jamsostek Premium for Director,621200,Regular,Compensation and Benefit for Director,FALSE,l10n_aai.account_chart_template_aai
621208,621208,Tax Allowance for Director,621200,Regular,Compensation and Benefit for Director,FALSE,l10n_aai.account_chart_template_aai
621209,621209,Severence for Director,621200,Regular,Compensation and Benefit for Director,FALSE,l10n_aai.account_chart_template_aai
621210,621210,Employee Insurance Premium for Director,621200,Regular,Compensation and Benefit for Director,FALSE,l10n_aai.account_chart_template_aai
621211,621211,Other Compensation and Benefit for Director,621200,Regular,Compensation and Benefit for Director,FALSE,l10n_aai.account_chart_template_aai
621300,621300,Recruitment and Training Expenses,621000,View,View,FALSE,l10n_aai.account_chart_template_aai
621301,621301,Training Fee,621300,Regular,Recruitment and Training Expenses,FALSE,l10n_aai.account_chart_template_aai
621302,621302,Material for Training,621300,Regular,Recruitment and Training Expenses,FALSE,l10n_aai.account_chart_template_aai
621303,621303,Job Advertisement,621300,Regular,Recruitment and Training Expenses,FALSE,l10n_aai.account_chart_template_aai
621304,621304,Seminar,621300,Regular,Recruitment and Training Expenses,FALSE,l10n_aai.account_chart_template_aai
621305,621305,Employee Activity,621300,Regular,Recruitment and Training Expenses,FALSE,l10n_aai.account_chart_template_aai
621306,621306,Other Recruitment and Training Expenses,621300,Regular,Recruitment and Training Expenses,FALSE,l10n_aai.account_chart_template_aai
630000,630000,Others,600000,View,View,FALSE,l10n_aai.account_chart_template_aai
631000,631000,Consultant and Insurance Expenses,630000,View,View,FALSE,l10n_aai.account_chart_template_aai
631100,631100,Consultant Expenses,631000,View,View,FALSE,l10n_aai.account_chart_template_aai
631101,631101,Technical Consultancy Expenses,631100,Regular,Consultant Expenses,FALSE,l10n_aai.account_chart_template_aai
631102,631102,Marketing Consultancy Expenses,631100,Regular,Consultant Expenses,FALSE,l10n_aai.account_chart_template_aai
631103,631103,Legal Consultancy Expenses,631100,Regular,Consultant Expenses,FALSE,l10n_aai.account_chart_template_aai
631104,631104,Financial Audit Expenses,631100,Regular,Consultant Expenses,FALSE,l10n_aai.account_chart_template_aai
631105,631105,Tax Consultancy Expenses,631100,Regular,Consultant Expenses,FALSE,l10n_aai.account_chart_template_aai
631106,631106,Payroll Consultancy Expenses,631100,Regular,Consultant Expenses,FALSE,l10n_aai.account_chart_template_aai
631107,631107,Security Agency Expenses,631100,Regular,Consultant Expenses,FALSE,l10n_aai.account_chart_template_aai
631108,631108,Actuaria Fee,631100,Regular,Consultant Expenses,FALSE,l10n_aai.account_chart_template_aai
631109,631109,Other Consultancy Expenses,631100,Regular,Consultant Expenses,FALSE,l10n_aai.account_chart_template_aai
631200,631200,Insurance Expenses,631000,View,View,FALSE,l10n_aai.account_chart_template_aai
631201,631201,Property Insurance,631200,Regular,Insurance Expenses,FALSE,l10n_aai.account_chart_template_aai
631202,631202,Cash in Safe Insurance,631200,Regular,Insurance Expenses,FALSE,l10n_aai.account_chart_template_aai
631203,631203,Other Insurance Expenses,631200,Regular,Insurance Expenses,FALSE,l10n_aai.account_chart_template_aai
632000,632000,Taxes,630000,View,View,FALSE,l10n_aai.account_chart_template_aai
632001,632001,Tax art. 21,632000,Regular,Taxes,FALSE,l10n_aai.account_chart_template_aai
632002,632002,Tax art. 22,632000,Regular,Taxes,FALSE,l10n_aai.account_chart_template_aai
632003,632003,Tax art. 23,632000,Regular,Taxes,FALSE,l10n_aai.account_chart_template_aai
632004,632004,Tax art. 4 (2),632000,Regular,Taxes,FALSE,l10n_aai.account_chart_template_aai
632005,632005,Tax art. 25,632000,Regular,Taxes,FALSE,l10n_aai.account_chart_template_aai
632006,632006,VAT Expenses,632000,Regular,Taxes,FALSE,l10n_aai.account_chart_template_aai
632007,632007,Tax art. 26,632000,Regular,Taxes,FALSE,l10n_aai.account_chart_template_aai
700000,700000,DEPRECIATION & AMORTIZATION EXPENSE,0,View,View,FALSE,l10n_aai.account_chart_template_aai
710000,710000,Depreciation Expenses,700000,View,View,FALSE,l10n_aai.account_chart_template_aai
710001,710001,Depreciation Expenses - Building and Civil Works,710000,Regular,Depreciation Expenses,FALSE,l10n_aai.account_chart_template_aai
710002,710002,Depreciation Expenses - Electrical and Mechanical,710000,Regular,Depreciation Expenses,FALSE,l10n_aai.account_chart_template_aai
710003,710003,Depreciation Expenses - Laboratorium Equipment,710000,Regular,Depreciation Expenses,FALSE,l10n_aai.account_chart_template_aai
710004,710004,Depreciation Expenses - Furniture and Fixtures,710000,Regular,Depreciation Expenses,FALSE,l10n_aai.account_chart_template_aai
710005,710005,Depreciation Expenses - IT Equipment,710000,Regular,Depreciation Expenses,FALSE,l10n_aai.account_chart_template_aai
710006,710006,Depreciation Expenses - Vehicles,710000,Regular,Depreciation Expenses,FALSE,l10n_aai.account_chart_template_aai
710007,710007,Depreciation Expenses - Office Equipment,710000,Regular,Depreciation Expenses,FALSE,l10n_aai.account_chart_template_aai
710008,710008,Depreciation Expenses - Warehouse Equipment,710000,Regular,Depreciation Expenses,FALSE,l10n_aai.account_chart_template_aai
720000,720000,Amortization Expenses,700000,View,View,FALSE,l10n_aai.account_chart_template_aai
720001,720001,Amortisation Land & Development,720000,Regular,Amortization Expenses,FALSE,l10n_aai.account_chart_template_aai
720002,720002,Amortization Building & Civil Works,720000,Regular,Amortization Expenses,FALSE,l10n_aai.account_chart_template_aai
720003,720003,Amortization Mechanical Electrical,720000,Regular,Amortization Expenses,FALSE,l10n_aai.account_chart_template_aai
720004,720004,Amortization Piping & Networks,720000,Regular,Amortization Expenses,FALSE,l10n_aai.account_chart_template_aai
720005,720005,Amortization Operational Supporting Facility,720000,Regular,Amortization Expenses,FALSE,l10n_aai.account_chart_template_aai
720006,720006,Amortization Operational Software & License,720000,Regular,Amortization Expenses,FALSE,l10n_aai.account_chart_template_aai
720007,720007,Amortization Others,720000,Regular,Amortization Expenses,FALSE,l10n_aai.account_chart_template_aai
800000,800000,OTHER INCOME (EXPENSES),0,View,View,FALSE,l10n_aai.account_chart_template_aai
810000,810000,Other Income,800000,View,View,FALSE,l10n_aai.account_chart_template_aai
810001,810001,Interest Income,810000,Regular,Other Income,FALSE,l10n_aai.account_chart_template_aai
810002,810002,Miscellaneous Other Income,810000,Regular,Other Income,FALSE,l10n_aai.account_chart_template_aai
820000,820000,Other Expenses,800000,View,View,FALSE,l10n_aai.account_chart_template_aai
820001,820001,Interest Expenses,820000,Regular,Other Expenses,FALSE,l10n_aai.account_chart_template_aai
820002,820002,Miscellaneous Other Expenses,820000,Regular,Other Expenses,FALSE,l10n_aai.account_chart_template_aai
830000,830000,Taxes,800000,View,View,FALSE,l10n_aai.account_chart_template_aai
830001,830001,Deffered Income Tax,830000,Regular,Taxes,FALSE,l10n_aai.account_chart_template_aai
830002,830002,Current Income Tax,830000,Regular,Taxes,FALSE,l10n_aai.account_chart_template_aai
830003,830003,Income Tax,830000,Regular,Taxes,FALSE,l10n_aai.account_chart_template_aai
840000,840000,Gain or Losses,800000,View,View,FALSE,l10n_aai.account_chart_template_aai
840001,840001,Gain or (Loss) Dispossal Asset,840000,Regular,Gain or Losses,FALSE,l10n_aai.account_chart_template_aai
840003,840003,Realize Gain or (Losss),840000,Regular,Gain or Losses,FALSE,l10n_aai.account_chart_template_aai
840004,840004,Unrealize  Gain or (Loss),840000,Regular,Gain or Losses,FALSE,l10n_aai.account_chart_template_aai
840005,840005,Gain or (Loss) due to changes in discount rate of provision,840000,Regular,Gain or Losses,FALSE,l10n_aai.account_chart_template_aai
