id,name,model_id:id,group_id:id,perm_read,perm_write,perm_create,perm_unlink
advance_request_user,advance.req,model_advance_req,brg_fin_sec.gr_adv_req,1,1,1,0
advance_request_line_user,advance.req.line,model_advance_req_line,brg_fin_sec.gr_adv_req,1,1,1,1
advance_request_treasury,advance.req,model_advance_req,brg_fin_sec.gr_tre_spv,1,1,1,1
